04 Performance Measures
…
test_tbl

## # A tibble: 2,857 x 23
##       sku national_inv lead_time in_transit_qty forecast_3_month
##     <dbl>        <dbl>     <dbl>          <dbl>            <dbl>
##  1 1.12e6            7         8              0                0
##  2 1.12e6            0        12              0              163
##  3 1.13e6          150         8              0              325
##  4 1.13e6            0         8              0                3
##  5 1.13e6            3         3              0               16
##  6 1.13e6          -62         8              0              120
##  7 1.13e6            0         8              0                2
##  8 1.13e6           11         2             10               27
##  9 1.13e6            1         2              4                4
## 10 1.14e6           -1         8              0                9
## # ... with 2,847 more rows, and 18 more variables: forecast_6_month <dbl>,
## #   forecast_9_month <dbl>, sales_1_month <dbl>, sales_3_month <dbl>,
## #   sales_6_month <dbl>, sales_9_month <dbl>, min_bank <dbl>,
## #   potential_issue <fct>, pieces_past_due <dbl>, perf_6_month_avg <dbl>,
## #   perf_12_month_avg <dbl>, local_bo_qty <dbl>, deck_risk <fct>,
## #   oe_constraint <fct>, ppap_risk <fct>, stop_auto_buy <fct>, rev_stop <fct>,
## #   went_on_backorder <fct>
…
# Gain & Lift

ranked_predictions_tbl <- predictions_tbl %>%
    bind_cols(test_tbl) %>%
    select(predict:Yes, went_on_backorder) %>%
    arrange(desc(Yes))

ranked_predictions_tbl

## # A tibble: 2,857 x 4
##    predict       No   Yes went_on_backorder
##    <fct>      <dbl> <dbl> <fct>            
##  1 Yes     0.000523 0.999 Yes              
##  2 Yes     0.00168  0.998 Yes              
##  3 Yes     0.00280  0.997 Yes              
##  4 Yes     0.00334  0.997 Yes              
##  5 Yes     0.00348  0.997 Yes              
##  6 Yes     0.00388  0.996 Yes              
##  7 Yes     0.00397  0.996 Yes              
##  8 Yes     0.00435  0.996 Yes              
##  9 Yes     0.00437  0.996 Yes              
## 10 Yes     0.00449  0.996 Yes              
## # ... with 2,847 more rows
…
